Name,Code,Barcode Symbology,Brand,Category Code,Unit Code,Sale Unit Code, Purchase Unit Code,Cost,Price,Alert Quantity, Tax Rate Name,Tax Method,Image,Subcategory Code,Product Variants Separated by |,Custom Field 1,Custom Field 2,Custom Field 3,Custom Field 4,Custom Field 5,Custom Field 6,HSN Code,Secondary Name,Supplier Name,Supplier Part No,Supplier Price
COOLENT,001,code128,Spare Parts,C1,PC,PC,PC,0,5,20,VAT @15%,exclusive,,,,0,0,,,,,,COOLENT,,,
SHALLAC,005,code128,Spare Parts,C1,PC,PC,PC,0,20,20,VAT @15%,exclusive,,,,0,0,,,,,,SHALLAC,,,
DISTELD WATER,007,code128,Spare Parts,C1,PC,PC,PC,0,1,20,VAT @15%,exclusive,,,,0,0,,,,,,DISTELD WATER,,,
COOLENT,012,code128,Spare Parts,C1,PC,PC,PC,0,10,20,VAT @15%,exclusive,,,,0,0,,,,,,COOLENT,,,
COOLTEC,013,code128,Spare Parts,C1,PC,PC,PC,23*,40,20,VAT @15%,exclusive,,,,23*,0,,,,,,COOLTEC,,,
SILICON,05010884AA,code128,Spare Parts,C1,PC,PC,PC,22./20,30,20,VAT @15%,exclusive,,,,22./20,0,,,,,,SILICON,,,
A/T OIL,123,code128,Spare Parts,C1,PC,PC,PC,12.46*,15,20,VAT @15%,exclusive,,,,12.46*,0,,,,,,A/T OIL,,,
ENG OIL HYUNDAI15W40,15W40,code128,Spare Parts,C1,PC,PC,PC,13.225*,20,20,VAT @15%,exclusive,,,,13.225*,0,,,,,,ENG OIL HYUNDAI15W40,,,
ENG OIL HYNDAI 15W40,15W40 4 L,code128,Spare Parts,C1,PC,PC,PC,47*,57,20,VAT @15%,exclusive,,,,47*,0,,,,,,ENG OIL HYNDAI 15W40,,,
FOG LAMP BULB,1864755004N,code128,Spare Parts,C1,PC,PC,PC,7.,20,20,VAT @15%,exclusive,,,,7.,0,,,,,,FOG LAMP BULB,,,
H/LAMP BULB,1864755007,code128,Spare Parts,C1,PC,PC,PC,9.2*,20,20,VAT @15%,exclusive,,,,9.2*,0,,,,,,H/LAMP BULB,,,
H/LAMP BULB,1864761566E,code128,Spare Parts,C1,PC,PC,PC,7.5*,20,20,VAT @15%,exclusive,,,,7.5*,0,,,,,,H/LAMP BULB,,,
ENG OIL SUPER SHELL,20W,code128,Spare Parts,C1,PC,PC,PC,13.9*,17,20,VAT @15%,exclusive,,,,13.9*,0,,,,,,ENG OIL SUPER SHELL,,,
BRAKE FLUD,21,code128,Spare Parts,C1,PC,PC,PC,7.185,9,20,VAT @15%,exclusive,,,,7.185,0,,,,,,BRAKE FLUD,,,
BRAKE FLUID,221,code128,Spare Parts,C1,PC,PC,PC,0,5,20,VAT @15%,exclusive,,,,0,0,,,,,,BRAKE FLUID,,,
BRACKET,2533322010,code128,Spare Parts,C1,PC,PC,PC,0,24.25,20,VAT @15%,exclusive,,,,0,0,,,,,,BRACKET,,,
GUARD AIR RADI,29135H1301,code128,Spare Parts,C1,PC,PC,PC,0,23,20,VAT @15%,exclusive,,,,0,0,,,,,,GUARD AIR RADI,,,
COOLANT AC DELCO,33/67,code128,Spare Parts,C1,PC,PC,PC,29.17,40,20,VAT @15%,exclusive,,,,29.17,0,,,,,,COOLANT AC DELCO,,,
BEARING GEAR,35BVV07-2,code128,Spare Parts,C1,PC,PC,PC,200,300,20,VAT @15%,exclusive,,,,200,0,,,,,,BEARING GEAR,,,
HOSE FUEL,360106140,code128,Spare Parts,C1,PC,PC,PC,0,0,20,VAT @15%,exclusive,,,,0,0,,,,,,HOSE FUEL,,,
BRACKET ASSY,437464A001,code128,Spare Parts,C1,PC,PC,PC,0,38,20,VAT @15%,exclusive,,,,0,0,,,,,,BRACKET ASSY,,,
STUD,509300066,code128,Spare Parts,C1,PC,PC,PC,4,7,20,VAT @15%,exclusive,,,,4,0,,,,,,STUD,,,
W/BEARING,517034A000,code128,Spare Parts,C1,PC,PC,PC,0,110,20,VAT @15%,exclusive,,,,0,0,,,,,,W/BEARING,,,
R/BEARING2.5,531313001,code128,Spare Parts,C1,PC,PC,PC,0,61,20,VAT @15%,exclusive,,,,0,0,,,,,,R/BEARING2.5,,,
TENSION ARM ASSY FR LH,545002M000,code128,Spare Parts,C1,PC,PC,PC,0,814,20,VAT @15%,exclusive,,,,0,0,,,,,,TENSION ARM ASSY FR LH,,,
GASKET O/H,587814360,code128,Spare Parts,C1,PC,PC,PC,420,800,20,VAT @15%,exclusive,,,,420,0,,,,,,GASKET O/H,,,
LINING BRAKE,587830002,code128,Spare Parts,C1,PC,PC,PC,190,320,20,VAT @15%,exclusive,,,,190,0,,,,,,LINING BRAKE,,,
W/CLY KIT RR,587830489,code128,Spare Parts,C1,PC,PC,PC,62,96,20,VAT @15%,exclusive,,,,62,0,,,,,,W/CLY KIT RR,,,
W/CLY KIT RR,587830546,code128,Spare Parts,C1,PC,PC,PC,0,67,20,VAT @15%,exclusive,,,,0,0,,,,,,W/CLY KIT RR,,,
W/CLY KIT FR,587830714,code128,Spare Parts,C1,PC,PC,PC,0,35,20,VAT @15%,exclusive,,,,0,0,,,,,,W/CLY KIT FR,,,
REPAIR KIT,587830813,code128,Spare Parts,C1,PC,PC,PC,20,35,20,VAT @15%,exclusive,,,,20,0,,,,,,REPAIR KIT,,,
KING PIN,587830978,code128,Spare Parts,C1,PC,PC,PC,200,340,20,VAT @15%,exclusive,,,,200,0,,,,,,KING PIN,,,
CLY KIT LWR,587831081,code128,Spare Parts,C1,PC,PC,PC,21,30,20,VAT @15%,exclusive,,,,21,0,,,,,,CLY KIT LWR,,,
REPAIR KIT LWR,587831204,code128,Spare Parts,C1,PC,PC,PC,26,35,20,VAT @15%,exclusive,,,,26,0,,,,,,REPAIR KIT LWR,,,
REPAIR KIT LWR 2.5,587831216,code128,Spare Parts,C1,PC,PC,PC,0,28,20,VAT @15%,exclusive,,,,0,0,,,,,,REPAIR KIT LWR 2.5,,,
W/CLY KIT,587831598,code128,Spare Parts,C1,PC,PC,PC,0,60,20,VAT @15%,exclusive,,,,0,0,,,,,,W/CLY KIT,,,
W/CLY KIT FR 2.5/3.6,587831602,code128,Spare Parts,C1,PC,PC,PC,22,35,20,VAT @15%,exclusive,,,,22,0,,,,,,W/CLY KIT FR 2.5/3.6,,,
M/CLY KIT FR,587831621,code128,Spare Parts,C1,PC,PC,PC,48,65,20,VAT @15%,exclusive,,,,48,0,,,,,,M/CLY KIT FR,,,
LINING,587831967,code128,Spare Parts,C1,PC,PC,PC,0,310,20,VAT @15%,exclusive,,,,0,0,,,,,,LINING,,,
BRAKE LINING,588300001,code128,Spare Parts,C1,PC,PC,PC,188,270,20,VAT @15%,exclusive,,,,188,0,,,,,,BRAKE LINING,,,
LINING BRAKE NPR 4.3,588300002,code128,Spare Parts,C1,PC,PC,PC,255,425,20,VAT @15%,exclusive,,,,255,0,,,,,,LINING BRAKE NPR 4.3,,,
ENG OIL HYUNDAI 5W30,5W30,code128,Spare Parts,C1,PC,PC,PC,21/20*,25,20,VAT @15%,exclusive,,,,21/20*,0,,,,,,ENG OIL HYUNDAI 5W30,,,
ENG OIL HYUNDAI 5W40,5W40,code128,Spare Parts,C1,PC,PC,PC,21/20*,25,20,VAT @15%,exclusive,,,,21/20*,0,,,,,,ENG OIL HYUNDAI 5W40,,,
ENG OIL HYNDAI 5W40,5W40 4L,code128,Spare Parts,C1,PC,PC,PC,98.5,130,20,VAT @15%,exclusive,,,,98.5,0,,,,,,ENG OIL HYNDAI 5W40,,,
BEARING,6003,code128,Spare Parts,C1,PC,PC,PC,15,25,20,VAT @15%,exclusive,,,,15,0,,,,,,BEARING,,,
BEARING,6006,code128,Spare Parts,C1,PC,PC,PC,6,30,20,VAT @15%,exclusive,,,,6,0,,,,,,BEARING,,,
BEARING,6200,code128,Spare Parts,C1,PC,PC,PC,2.5,15,20,VAT @15%,exclusive,,,,2.5,0,,,,,,BEARING,,,
BEARING,6201,code128,Spare Parts,C1,PC,PC,PC,3/6,15,20,VAT @15%,exclusive,,,,3/6,0,,,,,,BEARING,,,
BEARING ALTER,6202,code128,Spare Parts,C1,PC,PC,PC,2/4/5/7.5/4.5/6,20,20,VAT @15%,exclusive,,,,2/4/5/7.5/4.5/6,0,,,,,,BEARING ALTER,,,
BEARING,6203,code128,Spare Parts,C1,PC,PC,PC,2DPI/5JPN/7 CANADA/9JPN,20,20,VAT @15%,exclusive,,,,2DPI/5JPN/7 CANADA/9JPN,0,,,,,,BEARING,,,
BEARING,6204,code128,Spare Parts,C1,PC,PC,PC,0,20,20,VAT @15%,exclusive,,,,0,0,,,,,,BEARING,,,
BEARING A/C,6301,code128,Spare Parts,C1,PC,PC,PC,2.BW/3/4/6,15,20,VAT @15%,exclusive,,,,2.BW/3/4/6,5 NSK,,,,,,BEARING A/C,,,
BEARING,6302,code128,Spare Parts,C1,PC,PC,PC,5/4,15,20,VAT @15%,exclusive,,,,5/4,0,,,,,,BEARING,,,
BEARING ALTER,6303,code128,Spare Parts,C1,PC,PC,PC,5NTN/5 KOYO/6/5 NA/7/8,25,20,VAT @15%,exclusive,,,,5NTN/5 KOYO/6/5 NA/7/8,0,,,,,,BEARING ALTER,,,
BEARING,6304,code128,Spare Parts,C1,PC,PC,PC,10,25,20,VAT @15%,exclusive,,,,10,0,,,,,,BEARING,,,
BEARING,6305,code128,Spare Parts,C1,PC,PC,PC,10/8,50,20,VAT @15%,exclusive,,,,10/8,0,,,,,,BEARING,,,
BEARING GEAR,6307NR,code128,Spare Parts,C1,PC,PC,PC,35,90,20,VAT @15%,exclusive,,,,35,0,,,,,,BEARING GEAR,,,
HINGE ASSY DR,7931038000,code128,Spare Parts,C1,PC,PC,PC,0,53,20,VAT @15%,exclusive,,,,0,0,,,,,,HINGE ASSY DR,,,
SILICON,81158,code128,Spare Parts,C1,PC,PC,PC,4.17,10,20,VAT @15%,exclusive,,,,4.17,0,,,,,,SILICON,,,
CLUTCH COVER,89351833,code128,Spare Parts,C1,PC,PC,PC,0,600,20,VAT @15%,exclusive,,,,0,0,,,,,,CLUTCH COVER,,,
COVER CLUTCH,8941012430,code128,Spare Parts,C1,PC,PC,PC,0,250,20,VAT @15%,exclusive,,,,0,0,,,,,,COVER CLUTCH,,,
BUSHING,894113314,code128,Spare Parts,C1,PC,PC,PC,0,10,20,VAT @15%,exclusive,,,,0,0,,,,,,BUSHING,,,
BUSHING SUSP,894113323,code128,Spare Parts,C1,PC,PC,PC,0,13,20,VAT @15%,exclusive,,,,0,0,,,,,,BUSHING SUSP,,,
OIL SEAL,894118091,code128,Spare Parts,C1,PC,PC,PC,10,14,20,VAT @15%,exclusive,,,,10,0,,,,,,OIL SEAL,,,
OIL SEAL,894156589,code128,Spare Parts,C1,PC,PC,PC,0,18,20,VAT @15%,exclusive,,,,0,0,,,,,,OIL SEAL,,,
H/DOOR,894217785,code128,Spare Parts,C1,PC,PC,PC,15,25,20,VAT @15%,exclusive,,,,15,0,,,,,,H/DOOR,,,
BEARING,894248088,code128,Spare Parts,C1,PC,PC,PC,53,85,20,VAT @15%,exclusive,,,,53,0,,,,,,BEARING,,,
OIL SEAL,894248117,code128,Spare Parts,C1,PC,PC,PC,10,18,20,VAT @15%,exclusive,,,,10,0,,,,,,OIL SEAL,,,
P.PLATE 2.5,894259132,code128,Spare Parts,C1,PC,PC,PC,0,356,20,VAT @15%,exclusive,,,,0,0,,,,,,P.PLATE 2.5,,,
OIL COOLER,894311222,code128,Spare Parts,C1,PC,PC,PC,240,350,20,VAT @15%,exclusive,,,,240,0,,,,,,OIL COOLER,,,
OIL SEAL,894318909,code128,Spare Parts,C1,PC,PC,PC,7,12,20,VAT @15%,exclusive,,,,7,0,,,,,,OIL SEAL,,,
OIL SEAL,894318910,code128,Spare Parts,C1,PC,PC,PC,6,10,20,VAT @15%,exclusive,,,,6,0,,,,,,OIL SEAL,,,
CENTER BEARING,894328800,code128,Spare Parts,C1,PC,PC,PC,35,100,20,VAT @15%,exclusive,,,,35,0,,,,,,CENTER BEARING,,,
CLUTCH OVER RUNNING,894334976,code128,Spare Parts,C1,PC,PC,PC,335,500,20,VAT @15%,exclusive,,,,335,0,,,,,,CLUTCH OVER RUNNING,,,
OIL SEAL,894336314,code128,Spare Parts,C1,PC,PC,PC,13,20,20,VAT @15%,exclusive,,,,13,0,,,,,,OIL SEAL,,,
OIL SEAL,894336315,code128,Spare Parts,C1,PC,PC,PC,13,20,20,VAT @15%,exclusive,,,,13,0,,,,,,OIL SEAL,,,
OIL SEAL RR,894336316,code128,Spare Parts,C1,PC,PC,PC,0,20,20,VAT @15%,exclusive,,,,0,0,,,,,,OIL SEAL RR,,,
OIL SEAL RR,894336317,code128,Spare Parts,C1,PC,PC,PC,0,20,20,VAT @15%,exclusive,,,,0,0,,,,,,OIL SEAL RR,,,
NUT,894365145,code128,Spare Parts,C1,PC,PC,PC,7,13,20,VAT @15%,exclusive,,,,7,0,,,,,,NUT,,,
BRAKE DRUM,894382884,code128,Spare Parts,C1,PC,PC,PC,275,425,20,VAT @15%,exclusive,,,,275,0,,,,,,BRAKE DRUM,,,
ALTERNATOR,894389772,code128,Spare Parts,C1,PC,PC,PC,1240,1750,20,VAT @15%,exclusive,,,,1240,0,,,,,,ALTERNATOR,,,
H/DOOR IN,894403144,code128,Spare Parts,C1,PC,PC,PC,10,25,20,VAT @15%,exclusive,,,,10,0,,,,,,H/DOOR IN,,,
DISC CLUT,894435011,code128,Spare Parts,C1,PC,PC,PC,0,180,20,VAT @15%,exclusive,,,,0,0,,,,,,DISC CLUT,,,
R/BEARING,894438300,code128,Spare Parts,C1,PC,PC,PC,118,180,20,VAT @15%,exclusive,,,,118,0,,,,,,R/BEARING,,,
HOSE CLUTCH,894443569,code128,Spare Parts,C1,PC,PC,PC,75,110,20,VAT @15%,exclusive,,,,75,0,,,,,,HOSE CLUTCH,,,
SHOCK FR,894446373,code128,Spare Parts,C1,PC,PC,PC,0,95,20,VAT @15%,exclusive,,,,0,0,,,,,,SHOCK FR,,,
CLABER KIT,894461250,code128,Spare Parts,C1,PC,PC,PC,45,70,20,VAT @15%,exclusive,,,,45,0,,,,,,CLABER KIT,,,
BUSHING LEAF,894463020,code128,Spare Parts,C1,PC,PC,PC,0,10,20,VAT @15%,exclusive,,,,0,0,,,,,,BUSHING LEAF,,,
A/T OIL,A.A.B,code128,Spare Parts,C1,PC,PC,PC,5.75*,10,20,VAT @15%,exclusive,,,,5.75*,0,,,,,,A/T OIL,,,
BRUSH ALT,A648D02071,code128,Spare Parts,C1,PC,PC,PC,0,13,20,VAT @15%,exclusive,,,,0,0,,,,,,BRUSH ALT,,,
BEARING ALTER,AT 303,code128,Spare Parts,C1,PC,PC,PC,15,40,20,VAT @15%,exclusive,,,,15,ATF303/15DR,,,,,,BEARING ALTER,,,
A/T OIL CASTROL,ATF 3,code128,Spare Parts,C1,PC,PC,PC,20,25,20,VAT @15%,exclusive,,,,20,0,,,,,,A/T OIL CASTROL,,,
OIL  A/T HYUNDAI,ATF MD3,code128,Spare Parts,C1,PC,PC,PC,15,20,20,VAT @15%,exclusive,,,,15,0,,,,,,OIL  A/T HYUNDAI,,,
BELT,AX 60,code128,Spare Parts,C1,PC,PC,PC,28,60,20,VAT @15%,exclusive,,,,28,0,,,,,,BELT,,,
SILICON DIRKO,D-72581,code128,Spare Parts,C1,PC,PC,PC,13.4*,25,20,VAT @15%,exclusive,,,,13.4*,0,,,,,,SILICON DIRKO,,,
BRAKE FLUID DOT 4,DOT 4,code128,Spare Parts,C1,PC,PC,PC,4.59,10,20,VAT @15%,exclusive,,,,4.59,0,,,,,,BRAKE FLUID DOT 4,,,
WIPER,DTS-18,code128,Spare Parts,C1,PC,PC,PC,11,25,20,VAT @15%,exclusive,,,,11,0,,,,,,WIPER,,,
WIPER,DTS-20,code128,Spare Parts,C1,PC,PC,PC,11,25,20,VAT @15%,exclusive,,,,11,0,,,,,,WIPER,,,
H/BRAKE SHOE,DW 96298282,code128,Spare Parts,C1,PC,PC,PC,130,190,20,VAT @15%,exclusive,,,,130,0,,,,,,H/BRAKE SHOE,,,
GREES,EP3,code128,Spare Parts,C1,PC,PC,PC,9.10*,15,20,VAT @15%,exclusive,,,,9.10*,0,,,,,,GREES,,,
GREES,EP4,code128,Spare Parts,C1,PC,PC,PC,6.67FUCHS,10,20,VAT @15%,exclusive,,,,6.67FUCHS,0,,,,,,GREES,,,
GREES,EP5,code128,Spare Parts,C1,PC,PC,PC,15.34,25,20,VAT @15%,exclusive,,,,15.34,0,,,,,,GREES,,,
BRUSH ALT,FM 305,code128,Spare Parts,C1,PC,PC,PC,0,10,20,VAT @15%,exclusive,,,,0,0,,,,,,BRUSH ALT,,,
BRUSH ALTER,FM 312,code128,Spare Parts,C1,PC,PC,PC,1.2,10,20,VAT @15%,exclusive,,,,1.2,0,,,,,,BRUSH ALTER,,,
SUSP FR RH,FR 545010X100,code128,Spare Parts,C1,PC,PC,PC,80,150,20,VAT @15%,exclusive,,,,80,0,,,,,,SUSP FR RH,,,
BRUSH SELF,FT 104,code128,Spare Parts,C1,PC,PC,PC,0,10,20,VAT @15%,exclusive,,,,0,0,,,,,,BRUSH SELF,,,
BRUSH ALT,FT 305,code128,Spare Parts,C1,PC,PC,PC,0,10,20,VAT @15%,exclusive,,,,0,0,,,,,,BRUSH ALT,,,
BRACKET W/PUMP,GA  2523736001,code128,Spare Parts,C1,PC,PC,PC,0,430,20,VAT @15%,exclusive,,,,0,0,,,,,,BRACKET W/PUMP,,,
BOOT M/T,GA 180156A,code128,Spare Parts,C1,PC,PC,PC,0,90,20,VAT @15%,exclusive,,,,0,0,,,,,,BOOT M/T,,,
CASE ASSY FR,GA 2131036010,code128,Spare Parts,C1,PC,PC,PC,0,650,20,VAT @15%,exclusive,,,,0,0,,,,,,CASE ASSY FR,,,
BRACKET ENG,GA 21910M2110,code128,Spare Parts,C1,PC,PC,PC,35,85,20,VAT @15%,exclusive,,,,35,0,,,,,,BRACKET ENG,,,
BRACKET ENG,GA 21930M2110,code128,Spare Parts,C1,PC,PC,PC,0,112,20,VAT @15%,exclusive,,,,0,0,,,,,,BRACKET ENG,,,
GASKET,GA 2512435020,code128,Spare Parts,C1,PC,PC,PC,0,15,20,VAT @15%,exclusive,,,,0,0,,,,,,GASKET,,,
FAN,GA 25231M2000,code128,Spare Parts,C1,PC,PC,PC,0,140,20,VAT @15%,exclusive,,,,0,0,,,,,,FAN,,,
BRACKET,GA 2523736001,code128,Spare Parts,C1,PC,PC,PC,0,470,20,VAT @15%,exclusive,,,,0,0,,,,,,BRACKET,,,
SHROUD ASSY,GA 25350M2001,code128,Spare Parts,C1,PC,PC,PC,0,150,20,VAT @15%,exclusive,,,,0,0,,,,,,SHROUD ASSY,,,
SENSOR,GA 25360M2000,code128,Spare Parts,C1,PC,PC,PC,0,115,20,VAT @15%,exclusive,,,,0,0,,,,,,SENSOR,,,
MOTOR ASSY,GA 25386M2000,code128,Spare Parts,C1,PC,PC,PC,0,1397,20,VAT @15%,exclusive,,,,0,0,,,,,,MOTOR ASSY,,,
HOSE RADI,GA 25411M2001,code128,Spare Parts,C1,PC,PC,PC,0,33,20,VAT @15%,exclusive,,,,0,0,,,,,,HOSE RADI,,,
HOSE RADI MB356345,GA 25411M2200,code128,Spare Parts,C1,PC,PC,PC,0,35,20,VAT @15%,exclusive,,,,0,0,,,,,,HOSE RADI MB356345,,,
HOSE RADI M MB356345,GA 25411M2201,code128,Spare Parts,C1,PC,PC,PC,0,30,20,VAT @15%,exclusive,,,,0,0,,,,,,HOSE RADI M MB356345,,,
HOSE RADI LWR,GA 25412M2001,code128,Spare Parts,C1,PC,PC,PC,0,37.54,20,VAT @15%,exclusive,,,,0,0,,,,,,HOSE RADI LWR,,,
CABLE SPARK NO.1,GA 2742036000,code128,Spare Parts,C1,PC,PC,PC,0,50,20,VAT @15%,exclusive,,,,0,0,,,,,,CABLE SPARK NO.1,,,
CABLE SPARK NO.2,GA 2743036000,code128,Spare Parts,C1,PC,PC,PC,0,50,20,VAT @15%,exclusive,,,,0,0,,,,,,CABLE SPARK NO.2,,,
CABLE SPARK NO.3,GA 2744036000,code128,Spare Parts,C1,PC,PC,PC,0,50,20,VAT @15%,exclusive,,,,0,0,,,,,,CABLE SPARK NO.3,,,
CABLE SPARK NO.4,GA 2745036000,code128,Spare Parts,C1,PC,PC,PC,0,50,20,VAT @15%,exclusive,,,,0,0,,,,,,CABLE SPARK NO.4,,,
CABLE SPARK NO.5,GA 2746036000,code128,Spare Parts,C1,PC,PC,PC,0,50,20,VAT @15%,exclusive,,,,0,0,,,,,,CABLE SPARK NO.5,,,
CABLE SPARK NO.6,GA 2747036000,code128,Spare Parts,C1,PC,PC,PC,0,50,20,VAT @15%,exclusive,,,,0,0,,,,,,CABLE SPARK NO.6,,,
CABLE DELCO,GA 2751036000,code128,Spare Parts,C1,PC,PC,PC,0,20,20,VAT @15%,exclusive,,,,0,0,,,,,,CABLE DELCO,,,
MANIFOLD ASSY RH,GA 2851036021,code128,Spare Parts,C1,PC,PC,PC,0,612,20,VAT @15%,exclusive,,,,0,0,,,,,,MANIFOLD ASSY RH,,,
GASKET SURGE TAN,GA 2921536000,code128,Spare Parts,C1,PC,PC,PC,0,10,20,VAT @15%,exclusive,,,,0,0,,,,,,GASKET SURGE TAN,,,
ALTERNATOR,GA 3730036015,code128,Spare Parts,C1,PC,PC,PC,0,1050,20,VAT @15%,exclusive,,,,0,0,,,,,,ALTERNATOR,,,
SHAFT ASSY RR,GA 49020M1210,code128,Spare Parts,C1,PC,PC,PC,0,1198.12,20,VAT @15%,exclusive,,,,0,0,,,,,,SHAFT ASSY RR,,,
BRAKE DISC,GA 51712M2010,code128,Spare Parts,C1,PC,PC,PC,0,390,20,VAT @15%,exclusive,,,,0,0,,,,,,BRAKE DISC,,,
BALL JOINT UPP.,GA 5441744000,code128,Spare Parts,C1,PC,PC,PC,0,150,20,VAT @15%,exclusive,,,,0,0,,,,,,BALL JOINT UPP.,,,
LINK KIT FR LH,GA 54830M2000K,code128,Spare Parts,C1,PC,PC,PC,20,45,20,VAT @15%,exclusive,,,,20,0,,,,,,LINK KIT FR LH,,,
LINK KIT FR RH,GA 54840M2000K,code128,Spare Parts,C1,PC,PC,PC,20,45,20,VAT @15%,exclusive,,,,20,0,,,,,,LINK KIT FR RH,,,
RING SYNC,GA 581049,code128,Spare Parts,C1,PC,PC,PC,0,230,20,VAT @15%,exclusive,,,,0,0,,,,,,RING SYNC,,,
INSULATOR A/T,GA 581620,code128,Spare Parts,C1,PC,PC,PC,0,170,20,VAT @15%,exclusive,,,,0,0,,,,,,INSULATOR A/T,,,
FENDER FR RH,GA 66320M2010,code128,Spare Parts,C1,PC,PC,PC,0,550,20,VAT @15%,exclusive,,,,0,0,,,,,,FENDER FR RH,,,
GAS SPRING T/GATE,GA 81280M2000,code128,Spare Parts,C1,PC,PC,PC,0,140,20,VAT @15%,exclusive,,,,0,0,,,,,,GAS SPRING T/GATE,,,
CHECKER ASSY,GA 81330M2000,code128,Spare Parts,C1,PC,PC,PC,0,47,20,VAT @15%,exclusive,,,,0,0,,,,,,CHECKER ASSY,,,
CHECKER RR DR,GA 81430M2000,code128,Spare Parts,C1,PC,PC,PC,0,35,20,VAT @15%,exclusive,,,,0,0,,,,,,CHECKER RR DR,,,
W/STRIP RR DR,GA 81810M2000,code128,Spare Parts,C1,PC,PC,PC,0,87,20,VAT @15%,exclusive,,,,0,0,,,,,,W/STRIP RR DR,,,
SUNVISOR LH,GA 85201M2010AR,code128,Spare Parts,C1,PC,PC,PC,0,138,20,VAT @15%,exclusive,,,,0,0,,,,,,SUNVISOR LH,,,
SUNVISOR RH,GA 85202M2010AR,code128,Spare Parts,C1,PC,PC,PC,0,130,20,VAT @15%,exclusive,,,,0,0,,,,,,SUNVISOR RH,,,
GRILL RADI,GA 86350M2010,code128,Spare Parts,C1,PC,PC,PC,0,250,20,VAT @15%,exclusive,,,,0,0,,,,,,GRILL RADI,,,
GARNISH FR LH,GA 86371M2000,code128,Spare Parts,C1,PC,PC,PC,0,30,20,VAT @15%,exclusive,,,,0,0,,,,,,GARNISH FR LH,,,
MOULDING RH,GA 86372M2000,code128,Spare Parts,C1,PC,PC,PC,0,26.04,20,VAT @15%,exclusive,,,,0,0,,,,,,MOULDING RH,,,
FACE KIT FR,GA 86511M2001,code128,Spare Parts,C1,PC,PC,PC,0,1165,20,VAT @15%,exclusive,,,,0,0,,,,,,FACE KIT FR,,,
MOULDING FR LH,GA 87711M2010,code128,Spare Parts,C1,PC,PC,PC,0,20.83,20,VAT @15%,exclusive,,,,0,0,,,,,,MOULDING FR LH,,,
H/LAMP RH,GA 92102M2100,code128,Spare Parts,C1,PC,PC,PC,0,390,20,VAT @15%,exclusive,,,,0,0,,,,,,H/LAMP RH,,,
B/LAMP LH,GA 92301M2000,code128,Spare Parts,C1,PC,PC,PC,0,88.55,20,VAT @15%,exclusive,,,,0,0,,,,,,B/LAMP LH,,,
B/LAMP RH,GA 92302M2000,code128,Spare Parts,C1,PC,PC,PC,0,70,20,VAT @15%,exclusive,,,,0,0,,,,,,B/LAMP RH,,,
C/LAMP LH,GA 92303M2000,code128,Spare Parts,C1,PC,PC,PC,0,159,20,VAT @15%,exclusive,,,,0,0,,,,,,C/LAMP LH,,,
C/LAMP RH,GA 92304M2000,code128,Spare Parts,C1,PC,PC,PC,0,150,20,VAT @15%,exclusive,,,,0,0,,,,,,C/LAMP RH,,,
R/LAMP LH,GA 92401M2000,code128,Spare Parts,C1,PC,PC,PC,0,198,20,VAT @15%,exclusive,,,,0,0,,,,,,R/LAMP LH,,,
R/LAMP RH,GA 92402M2000,code128,Spare Parts,C1,PC,PC,PC,0,198,20,VAT @15%,exclusive,,,,0,0,,,,,,R/LAMP RH,,,
C/LAMP LH,GA 92502M2000,code128,Spare Parts,C1,PC,PC,PC,0,69,20,VAT @15%,exclusive,,,,0,0,,,,,,C/LAMP LH,,,
ACTUATOR ASSY RR LH,GA 95700M2500,code128,Spare Parts,C1,PC,PC,PC,0,180,20,VAT @15%,exclusive,,,,0,0,,,,,,ACTUATOR ASSY RR LH,,,
ACTUATOR T/GATE LOCK,GA 95700M2700,code128,Spare Parts,C1,PC,PC,PC,0,165,20,VAT @15%,exclusive,,,,0,0,,,,,,ACTUATOR T/GATE LOCK,,,
ACTUATOR ASSY RR RH,GA 95700M3650,code128,Spare Parts,C1,PC,PC,PC,0,165,20,VAT @15%,exclusive,,,,0,0,,,,,,ACTUATOR ASSY RR RH,,,
ACTUATOR ASSY FR LH,GA 9573537001,code128,Spare Parts,C1,PC,PC,PC,0,290,20,VAT @15%,exclusive,,,,0,0,,,,,,ACTUATOR ASSY FR LH,,,
CORE ASSY,GA 97001M2000,code128,Spare Parts,C1,PC,PC,PC,0,1146,20,VAT @15%,exclusive,,,,0,0,,,,,,CORE ASSY,,,
HOSE WATER,GA 97311M2100,code128,Spare Parts,C1,PC,PC,PC,0,25,20,VAT @15%,exclusive,,,,0,0,,,,,,HOSE WATER,,,
EVAPA,GA 97602M2000,code128,Spare Parts,C1,PC,PC,PC,0,760,20,VAT @15%,exclusive,,,,0,0,,,,,,EVAPA,,,
RADIATOR A/C,GA 97660M2001,code128,Spare Parts,C1,PC,PC,PC,0,1450,20,VAT @15%,exclusive,,,,0,0,,,,,,RADIATOR A/C,,,
ARM ASSY RR WIPER,GA 98820M2000,code128,Spare Parts,C1,PC,PC,PC,0,56,20,VAT @15%,exclusive,,,,0,0,,,,,,ARM ASSY RR WIPER,,,
MOTOR REGU DR FR RH,GA 98880M2610,code128,Spare Parts,C1,PC,PC,PC,0,290,20,VAT @15%,exclusive,,,,0,0,,,,,,MOTOR REGU DR FR RH,,,
MITOR ASS P/S,GA 98890M2710,code128,Spare Parts,C1,PC,PC,PC,0,320,20,VAT @15%,exclusive,,,,0,0,,,,,,MITOR ASS P/S,,,
HOSE BRAKE RH,GA HB407506,code128,Spare Parts,C1,PC,PC,PC,0,95,20,VAT @15%,exclusive,,,,0,0,,,,,,HOSE BRAKE RH,,,
HOSE ASSY RETURN,GA HB560500,code128,Spare Parts,C1,PC,PC,PC,0,197.95,20,VAT @15%,exclusive,,,,0,0,,,,,,HOSE ASSY RETURN,,,
TIE ROD INN,GA HB568110,code128,Spare Parts,C1,PC,PC,PC,0,125,20,VAT @15%,exclusive,,,,0,0,,,,,,TIE ROD INN,,,
HOLDER CTR,GA HB745020,code128,Spare Parts,C1,PC,PC,PC,0,40,20,VAT @15%,exclusive,,,,0,0,,,,,,HOLDER CTR,,,
CLUTCH COVER,GA HD711005,code128,Spare Parts,C1,PC,PC,PC,0,477,20,VAT @15%,exclusive,,,,0,0,,,,,,CLUTCH COVER,,,
LINKAGE ASSY WIPER,GA HG820003,code128,Spare Parts,C1,PC,PC,PC,0,115,20,VAT @15%,exclusive,,,,0,0,,,,,,LINKAGE ASSY WIPER,,,
HOLDER SUNV,GA HH040048,code128,Spare Parts,C1,PC,PC,PC,0,2,20,VAT @15%,exclusive,,,,0,0,,,,,,HOLDER SUNV,,,
HOLDER SUNV,GA HH040048LY,code128,Spare Parts,C1,PC,PC,PC,0,2,20,VAT @15%,exclusive,,,,0,0,,,,,,HOLDER SUNV,,,
VALVE EXPA.,GA HJ700013,code128,Spare Parts,C1,PC,PC,PC,0,250,20,VAT @15%,exclusive,,,,0,0,,,,,,VALVE EXPA.,,,
VALVE EXPA 9762321000,GA HJ709003,code128,Spare Parts,C1,PC,PC,PC,0,231,20,VAT @15%,exclusive,,,,0,0,,,,,,VALVE EXPA 9762321000,,,
FILTER DRIER,GA HJ740209,code128,Spare Parts,C1,PC,PC,PC,0,390,20,VAT @15%,exclusive,,,,0,0,,,,,,FILTER DRIER,,,
HOSE DISC A/C,GA HJ759007A,code128,Spare Parts,C1,PC,PC,PC,0,290,20,VAT @15%,exclusive,,,,0,0,,,,,,HOSE DISC A/C,,,
A/C BELT,GA HJ820003,code128,Spare Parts,C1,PC,PC,PC,0,53,20,VAT @15%,exclusive,,,,0,0,,,,,,A/C BELT,,,
VALVE EXPA FR,GA HJ849004,code128,Spare Parts,C1,PC,PC,PC,0,250,20,VAT @15%,exclusive,,,,0,0,,,,,,VALVE EXPA FR,,,
SWITCH 4WD,GA HK938320,code128,Spare Parts,C1,PC,PC,PC,0,60,20,VAT @15%,exclusive,,,,0,0,,,,,,SWITCH 4WD,,,
RESERVOIR,GA HQ172101A,code128,Spare Parts,C1,PC,PC,PC,0,72,20,VAT @15%,exclusive,,,,0,0,,,,,,RESERVOIR,,,
B/M CLY,GA HQ234303,code128,Spare Parts,C1,PC,PC,PC,0,879,20,VAT @15%,exclusive,,,,0,0,,,,,,B/M CLY,,,
MIRROR FR RH,GA HQ650432,code128,Spare Parts,C1,PC,PC,PC,0,350,20,VAT @15%,exclusive,,,,0,0,,,,,,MIRROR FR RH,,,
MIRROR LH,GA HQ650433,code128,Spare Parts,C1,PC,PC,PC,0,450,20,VAT @15%,exclusive,,,,0,0,,,,,,MIRROR LH,,,
CONTROL ASSY,GA HQ780030A,code128,Spare Parts,C1,PC,PC,PC,0,650,20,VAT @15%,exclusive,,,,0,0,,,,,,CONTROL ASSY,,,
RELAY,GA HQ803630,code128,Spare Parts,C1,PC,PC,PC,0,90,20,VAT @15%,exclusive,,,,0,0,,,,,,RELAY,,,
H/LAMP LH,GA HQ804100,code128,Spare Parts,C1,PC,PC,PC,0,290,20,VAT @15%,exclusive,,,,0,0,,,,,,H/LAMP LH,,,
H/LAMP RH,GA HQ804110,code128,Spare Parts,C1,PC,PC,PC,0,290,20,VAT @15%,exclusive,,,,0,0,,,,,,H/LAMP RH,,,
SENSOR SPEED,GA HQ806900,code128,Spare Parts,C1,PC,PC,PC,0,160,20,VAT @15%,exclusive,,,,0,0,,,,,,SENSOR SPEED,,,
COIL,GA HQ808700J,code128,Spare Parts,C1,PC,PC,PC,0,200,20,VAT @15%,exclusive,,,,0,0,,,,,,COIL,,,
W/CLY RR,GA HR 232029,code128,Spare Parts,C1,PC,PC,PC,0,120,20,VAT @15%,exclusive,,,,0,0,,,,,,W/CLY RR,,,
CAP CENTER RR,GA HR 262003SF,code128,Spare Parts,C1,PC,PC,PC,0,90,20,VAT @15%,exclusive,,,,0,0,,,,,,CAP CENTER RR,,,
C/BUMPER LH GALL,GA HR 630120A,code128,Spare Parts,C1,PC,PC,PC,0,210,20,VAT @15%,exclusive,,,,0,0,,,,,,C/BUMPER LH GALL,,,
C/BUMPER FR RH,GA HR 630125,code128,Spare Parts,C1,PC,PC,PC,0,250,20,VAT @15%,exclusive,,,,0,0,,,,,,C/BUMPER FR RH,,,
C/BUMPER LH,GA HR 630750,code128,Spare Parts,C1,PC,PC,PC,0,290,20,VAT @15%,exclusive,,,,0,0,,,,,,C/BUMPER LH,,,
SHOCK RR 55300M1500,GA HR212800,code128,Spare Parts,C1,PC,PC,PC,0,230,20,VAT @15%,exclusive,,,,0,0,,,,,,SHOCK RR 55300M1500,,,
H/BRAKE CABLE RH,GA HR229021,code128,Spare Parts,C1,PC,PC,PC,0,125,20,VAT @15%,exclusive,,,,0,0,,,,,,H/BRAKE CABLE RH,,,
CLY ASSY RR,GA HR232029,code128,Spare Parts,C1,PC,PC,PC,0,120,20,VAT @15%,exclusive,,,,0,0,,,,,,CLY ASSY RR,,,
VALVE PRO,GA HR235115,code128,Spare Parts,C1,PC,PC,PC,0,320,20,VAT @15%,exclusive,,,,0,0,,,,,,VALVE PRO,,,
B/M ASSY,GA HR235203,code128,Spare Parts,C1,PC,PC,PC,0,781,20,VAT @15%,exclusive,,,,0,0,,,,,,B/M ASSY,,,
CAP CTR RR,GA HR262003SF,code128,Spare Parts,C1,PC,PC,PC,0,90,20,VAT @15%,exclusive,,,,0,0,,,,,,CAP CTR RR,,,
FENDER FR RH,GA HR506242,code128,Spare Parts,C1,PC,PC,PC,0,650,20,VAT @15%,exclusive,,,,0,0,,,,,,FENDER FR RH,,,
C/BUMPER FR LH,GA HR630120A,code128,Spare Parts,C1,PC,PC,PC,0,256.5,20,VAT @15%,exclusive,,,,0,0,,,,,,C/BUMPER FR LH,,,
C/BUMP FR RH,GA HR630135A,code128,Spare Parts,C1,PC,PC,PC,0,250,20,VAT @15%,exclusive,,,,0,0,,,,,,C/BUMP FR RH,,,
CORNER RR LH,GA HR630730,code128,Spare Parts,C1,PC,PC,PC,0,290,20,VAT @15%,exclusive,,,,0,0,,,,,,CORNER RR LH,,,
CORNER ASSY RR RH,GA HR630740,code128,Spare Parts,C1,PC,PC,PC,0,290,20,VAT @15%,exclusive,,,,0,0,,,,,,CORNER ASSY RR RH,,,
CORNER ASSY RR LH,GA HR630750,code128,Spare Parts,C1,PC,PC,PC,0,290,20,VAT @15%,exclusive,,,,0,0,,,,,,CORNER ASSY RR LH,,,
MUD GUARD RR LH,GA HR650351,code128,Spare Parts,C1,PC,PC,PC,0,44,20,VAT @15%,exclusive,,,,0,0,,,,,,MUD GUARD RR LH,,,
MIRROR,GA HR650411,code128,Spare Parts,C1,PC,PC,PC,0,144,20,VAT @15%,exclusive,,,,0,0,,,,,,MIRROR,,,
GUARD ASSY,GA HR650620,code128,Spare Parts,C1,PC,PC,PC,0,2155,20,VAT @15%,exclusive,,,,0,0,,,,,,GUARD ASSY,,,
MOULDING FR LH,GA HR650920,code128,Spare Parts,C1,PC,PC,PC,0,253,20,VAT @15%,exclusive,,,,0,0,,,,,,MOULDING FR LH,,,
MOULDING LWR LH,GA HR650930,code128,Spare Parts,C1,PC,PC,PC,0,261,20,VAT @15%,exclusive,,,,0,0,,,,,,MOULDING LWR LH,,,
RESERVOR ASSY A/C,GA HR780030,code128,Spare Parts,C1,PC,PC,PC,0,578,20,VAT @15%,exclusive,,,,0,0,,,,,,RESERVOR ASSY A/C,,,
COMPRESSOR A/C A/T,GA HR780154,code128,Spare Parts,C1,PC,PC,PC,0,2500,20,VAT @15%,exclusive,,,,0,0,,,,,,COMPRESSOR A/C A/T,,,
R/LAMP RH,GA HR804575,code128,Spare Parts,C1,PC,PC,PC,0,290,20,VAT @15%,exclusive,,,,0,0,,,,,,R/LAMP RH,,,
ACTUATOR ASSY RR RH,GA HR805780,code128,Spare Parts,C1,PC,PC,PC,0,218,20,VAT @15%,exclusive,,,,0,0,,,,,,ACTUATOR ASSY RR RH,,,
ARM WIPER LH,GA HR806911,code128,Spare Parts,C1,PC,PC,PC,0,45,20,VAT @15%,exclusive,,,,0,0,,,,,,ARM WIPER LH,,,
SWITCH ASSY DR,GA HR808100,code128,Spare Parts,C1,PC,PC,PC,0,330,20,VAT @15%,exclusive,,,,0,0,,,,,,SWITCH ASSY DR,,,
SWITCH ASSY P/WDO,GA HR808105,code128,Spare Parts,C1,PC,PC,PC,0,310,20,VAT @15%,exclusive,,,,0,0,,,,,,SWITCH ASSY P/WDO,,,
ANTENNA ASSY,GA HR808580,code128,Spare Parts,C1,PC,PC,PC,0,485,20,VAT @15%,exclusive,,,,0,0,,,,,,ANTENNA ASSY,,,
HOSE ASSY RET,GA MB033517A,code128,Spare Parts,C1,PC,PC,PC,0,190,20,VAT @15%,exclusive,,,,0,0,,,,,,HOSE ASSY RET,,,
HOSE FEED,GA MB033700A,code128,Spare Parts,C1,PC,PC,PC,0,190,20,VAT @15%,exclusive,,,,0,0,,,,,,HOSE FEED,,,
V-BELT MD185964,GA MB166386,code128,Spare Parts,C1,PC,PC,PC,0,30,20,VAT @15%,exclusive,,,,0,0,,,,,,V-BELT MD185964,,,
BOOT M/T,GA MB180156A,code128,Spare Parts,C1,PC,PC,PC,0,99.38,20,VAT @15%,exclusive,,,,0,0,,,,,,BOOT M/T,,,
BOLT,GA MB223894,code128,Spare Parts,C1,PC,PC,PC,0,1,20,VAT @15%,exclusive,,,,0,0,,,,,,BOLT,,,
RUN CHANNEL FR DR,GA MB227780,code128,Spare Parts,C1,PC,PC,PC,0,70,20,VAT @15%,exclusive,,,,0,0,,,,,,RUN CHANNEL FR DR,,,
GLASS RR,GA MB320331,code128,Spare Parts,C1,PC,PC,PC,0,190,20,VAT @15%,exclusive,,,,0,0,,,,,,GLASS RR,,,
OIL SEAL,GA MB393883,code128,Spare Parts,C1,PC,PC,PC,0,30,20,VAT @15%,exclusive,,,,0,0,,,,,,OIL SEAL,,,
P/S BELT,GA MB553430,code128,Spare Parts,C1,PC,PC,PC,0,28,20,VAT @15%,exclusive,,,,0,0,,,,,,P/S BELT,,,
HOSE SUCTION,GA MB553502A,code128,Spare Parts,C1,PC,PC,PC,0,33,20,VAT @15%,exclusive,,,,0,0,,,,,,HOSE SUCTION,,,
INSULATOR ENG,GA MB581802A,code128,Spare Parts,C1,PC,PC,PC,0,170,20,VAT @15%,exclusive,,,,0,0,,,,,,INSULATOR ENG,,,
SPRING RR GALLOPER,GA MB584158,code128,Spare Parts,C1,PC,PC,PC,0,423,20,VAT @15%,exclusive,,,,0,0,,,,,,SPRING RR GALLOPER,,,
SUNVISOR AASSY,GA MB608582BLE,code128,Spare Parts,C1,PC,PC,PC,0,132.52,20,VAT @15%,exclusive,,,,0,0,,,,,,SUNVISOR AASSY,,,
SUNVISOR ASSY RH,GA MB608582BLY,code128,Spare Parts,C1,PC,PC,PC,0,139,20,VAT @15%,exclusive,,,,0,0,,,,,,SUNVISOR ASSY RH,,,
SUNVISOR LH,GA MB608583BLE,code128,Spare Parts,C1,PC,PC,PC,0,104.94,20,VAT @15%,exclusive,,,,0,0,,,,,,SUNVISOR LH,,,
GASKET T/F CHN C,GA MD704139,code128,Spare Parts,C1,PC,PC,PC,0,10,20,VAT @15%,exclusive,,,,0,0,,,,,,GASKET T/F CHN C,,,
OIL SEAL,GA MD704175,code128,Spare Parts,C1,PC,PC,PC,0,20,20,VAT @15%,exclusive,,,,0,0,,,,,,OIL SEAL,,,
BEARING BALL,GA ME580495,code128,Spare Parts,C1,PC,PC,PC,0,290,20,VAT @15%,exclusive,,,,0,0,,,,,,BEARING BALL,,,
BEARING COUNTER,GA ME580496,code128,Spare Parts,C1,PC,PC,PC,0,150,20,VAT @15%,exclusive,,,,0,0,,,,,,BEARING COUNTER,,,
BEARING,GA ME580507,code128,Spare Parts,C1,PC,PC,PC,0,265.4,20,VAT @15%,exclusive,,,,0,0,,,,,,BEARING,,,
BEARING MAIN SHT,GA ME580799,code128,Spare Parts,C1,PC,PC,PC,0,240,20,VAT @15%,exclusive,,,,0,0,,,,,,BEARING MAIN SHT,,,
BEARING,GA ME580964,code128,Spare Parts,C1,PC,PC,PC,0,125,20,VAT @15%,exclusive,,,,0,0,,,,,,BEARING,,,
RING AS SYNCRONI,GA ME581034,code128,Spare Parts,C1,PC,PC,PC,0,190,20,VAT @15%,exclusive,,,,0,0,,,,,,RING AS SYNCRONI,,,
RING SYNC,GA ME581049,code128,Spare Parts,C1,PC,PC,PC,0,230,20,VAT @15%,exclusive,,,,0,0,,,,,,RING SYNC,,,
,,,,,,,,,,,,,,,,,,,,,,,,,,
,,,,,,,,,,,,,,,,,,,,,,,,,,
,,,,,,,,,,,,,,,,,,,,,,,,,,
,,,,,,,,,,,,,,,,,,,,,,,,,,
,,,,,,,,,,,,,,,,,,,,,,,,,,
,,,,,,,,,,,,,,,,,,,,,,,,,,
,,,,,,,,,,,,,,,,,,,,,,,,,,
,,,,,,,,,,,,,,,,,,,,,,,,,,
,,,,,,,,,,,,,,,,,,,,,,,,,,
,,,,,,,,,,,,,,,,,,,,,,,,,,
,,,,,,,,,,,,,,,,,,,,,,,,,,
,,,,,,,,,,,,,,,,,,,,,,,,,,
,,,,,,,,,,,,,,,,,,,,,,,,,,
,,,,,,,,,,,,,,,,,,,,,,,,,,
,,,,,,,,,,,,,,,,,,,,,,,,,,
,,,,,,,,,,,,,,,,,,,,,,,,,,
,,,,,,,,,,,,,,,,,,,,,,,,,,
,,,,,,,,,,,,,,,,,,,,,,,,,,
,,,,,,,,,,,,,,,,,,,,,,,,,,
,,,,,,,,,,,,,,,,,,,,,,,,,,
,,,,,,,,,,,,,,,,,,,,,,,,,,
,,,,,,,,,,,,,,,,,,,,,,,,,,
,,,,,,,,,,,,,,,,,,,,,,,,,,
,,,,,,,,,,,,,,,,,,,,,,,,,,
,,,,,,,,,,,,,,,,,,,,,,,,,,
,,,,,,,,,,,,,,,,,,,,,,,,,,
,,,,,,,,,,,,,,,,,,,,,,,,,,
,,,,,,,,,,,,,,,,,,,,,,,,,,
,,,,,,,,,,,,,,,,,,,,,,,,,,
,,,,,,,,,,,,,,,,,,,,,,,,,,
,,,,,,,,,,,,,,,,,,,,,,,,,,
,,,,,,,,,,,,,,,,,,,,,,,,,,
,,,,,,,,,,,,,,,,,,,,,,,,,,
,,,,,,,,,,,,,,,,,,,,,,,,,,
,,,,,,,,,,,,,,,,,,,,,,,,,,
,,,,,,,,,,,,,,,,,,,,,,,,,,
,,,,,,,,,,,,,,,,,,,,,,,,,,
,,,,,,,,,,,,,,,,,,,,,,,,,,
,,,,,,,,,,,,,,,,,,,,,,,,,,
,,,,,,,,,,,,,,,,,,,,,,,,,,
,,,,,,,,,,,,,,,,,,,,,,,,,,
,,,,,,,,,,,,,,,,,,,,,,,,,,
,,,,,,,,,,,,,,,,,,,,,,,,,,
,,,,,,,,,,,,,,,,,,,,,,,,,,
,,,,,,,,,,,,,,,,,,,,,,,,,,
,,,,,,,,,,,,,,,,,,,,,,,,,,
,,,,,,,,,,,,,,,,,,,,,,,,,,
,,,,,,,,,,,,,,,,,,,,,,,,,,
,,,,,,,,,,,,,,,,,,,,,,,,,,
,,,,,,,,,,,,,,,,,,,,,,,,,,
,,,,,,,,,,,,,,,,,,,,,,,,,,
,,,,,,,,,,,,,,,,,,,,,,,,,,
,,,,,,,,,,,,,,,,,,,,,,,,,,
,,,,,,,,,,,,,,,,,,,,,,,,,,
,,,,,,,,,,,,,,,,,,,,,,,,,,
,,,,,,,,,,,,,,,,,,,,,,,,,,
,,,,,,,,,,,,,,,,,,,,,,,,,,
,,,,,,,,,,,,,,,,,,,,,,,,,,
,,,,,,,,,,,,,,,,,,,,,,,,,,
,,,,,,,,,,,,,,,,,,,,,,,,,,
,,,,,,,,,,,,,,,,,,,,,,,,,,
,,,,,,,,,,,,,,,,,,,,,,,,,,
,,,,,,,,,,,,,,,,,,,,,,,,,,
,,,,,,,,,,,,,,,,,,,,,,,,,,
,,,,,,,,,,,,,,,,,,,,,,,,,,
,,,,,,,,,,,,,,,,,,,,,,,,,,
,,,,,,,,,,,,,,,,,,,,,,,,,,
,,,,,,,,,,,,,,,,,,,,,,,,,,
,,,,,,,,,,,,,,,,,,,,,,,,,,
,,,,,,,,,,,,,,,,,,,,,,,,,,
,,,,,,,,,,,,,,,,,,,,,,,,,,
,,,,,,,,,,,,,,,,,,,,,,,,,,
,,,,,,,,,,,,,,,,,,,,,,,,,,
,,,,,,,,,,,,,,,,,,,,,,,,,,
,,,,,,,,,,,,,,,,,,,,,,,,,,
,,,,,,,,,,,,,,,,,,,,,,,,,,
,,,,,,,,,,,,,,,,,,,,,,,,,,
,,,,,,,,,,,,,,,,,,,,,,,,,,
,,,,,,,,,,,,,,,,,,,,,,,,,,
,,,,,,,,,,,,,,,,,,,,,,,,,,
,,,,,,,,,,,,,,,,,,,,,,,,,,
,,,,,,,,,,,,,,,,,,,,,,,,,,
,,,,,,,,,,,,,,,,,,,,,,,,,,
,,,,,,,,,,,,,,,,,,,,,,,,,,
,,,,,,,,,,,,,,,,,,,,,,,,,,
,,,,,,,,,,,,,,,,,,,,,,,,,,
,,,,,,,,,,,,,,,,,,,,,,,,,,
,,,,,,,,,,,,,,,,,,,,,,,,,,
,,,,,,,,,,,,,,,,,,,,,,,,,,
,,,,,,,,,,,,,,,,,,,,,,,,,,
,,,,,,,,,,,,,,,,,,,,,,,,,,
,,,,,,,,,,,,,,,,,,,,,,,,,,
,,,,,,,,,,,,,,,,,,,,,,,,,,
,,,,,,,,,,,,,,,,,,,,,,,,,,
,,,,,,,,,,,,,,,,,,,,,,,,,,
,,,,,,,,,,,,,,,,,,,,,,,,,,
,,,,,,,,,,,,,,,,,,,,,,,,,,
,,,,,,,,,,,,,,,,,,,,,,,,,,
,,,,,,,,,,,,,,,,,,,,,,,,,,
,,,,,,,,,,,,,,,,,,,,,,,,,,
,,,,,,,,,,,,,,,,,,,,,,,,,,
,,,,,,,,,,,,,,,,,,,,,,,,,,
,,,,,,,,,,,,,,,,,,,,,,,,,,
,,,,,,,,,,,,,,,,,,,,,,,,,,
,,,,,,,,,,,,,,,,,,,,,,,,,,
,,,,,,,,,,,,,,,,,,,,,,,,,,
,,,,,,,,,,,,,,,,,,,,,,,,,,
,,,,,,,,,,,,,,,,,,,,,,,,,,
,,,,,,,,,,,,,,,,,,,,,,,,,,
,,,,,,,,,,,,,,,,,,,,,,,,,,
,,,,,,,,,,,,,,,,,,,,,,,,,,
,,,,,,,,,,,,,,,,,,,,,,,,,,
,,,,,,,,,,,,,,,,,,,,,,,,,,
,,,,,,,,,,,,,,,,,,,,,,,,,,
,,,,,,,,,,,,,,,,,,,,,,,,,,
,,,,,,,,,,,,,,,,,,,,,,,,,,
,,,,,,,,,,,,,,,,,,,,,,,,,,
,,,,,,,,,,,,,,,,,,,,,,,,,,
,,,,,,,,,,,,,,,,,,,,,,,,,,
,,,,,,,,,,,,,,,,,,,,,,,,,,
,,,,,,,,,,,,,,,,,,,,,,,,,,
,,,,,,,,,,,,,,,,,,,,,,,,,,
,,,,,,,,,,,,,,,,,,,,,,,,,,
,,,,,,,,,,,,,,,,,,,,,,,,,,
,,,,,,,,,,,,,,,,,,,,,,,,,,
,,,,,,,,,,,,,,,,,,,,,,,,,,
,,,,,,,,,,,,,,,,,,,,,,,,,,
,,,,,,,,,,,,,,,,,,,,,,,,,,
,,,,,,,,,,,,,,,,,,,,,,,,,,
,,,,,,,,,,,,,,,,,,,,,,,,,,
,,,,,,,,,,,,,,,,,,,,,,,,,,
,,,,,,,,,,,,,,,,,,,,,,,,,,
,,,,,,,,,,,,,,,,,,,,,,,,,,
,,,,,,,,,,,,,,,,,,,,,,,,,,
,,,,,,,,,,,,,,,,,,,,,,,,,,
,,,,,,,,,,,,,,,,,,,,,,,,,,
,,,,,,,,,,,,,,,,,,,,,,,,,,
,,,,,,,,,,,,,,,,,,,,,,,,,,
,,,,,,,,,,,,,,,,,,,,,,,,,,
,,,,,,,,,,,,,,,,,,,,,,,,,,
,,,,,,,,,,,,,,,,,,,,,,,,,,
,,,,,,,,,,,,,,,,,,,,,,,,,,
,,,,,,,,,,,,,,,,,,,,,,,,,,
,,,,,,,,,,,,,,,,,,,,,,,,,,
,,,,,,,,,,,,,,,,,,,,,,,,,,
,,,,,,,,,,,,,,,,,,,,,,,,,,
,,,,,,,,,,,,,,,,,,,,,,,,,,
,,,,,,,,,,,,,,,,,,,,,,,,,,
,,,,,,,,,,,,,,,,,,,,,,,,,,
,,,,,,,,,,,,,,,,,,,,,,,,,,
,,,,,,,,,,,,,,,,,,,,,,,,,,
,,,,,,,,,,,,,,,,,,,,,,,,,,
,,,,,,,,,,,,,,,,,,,,,,,,,,
,,,,,,,,,,,,,,,,,,,,,,,,,,
,,,,,,,,,,,,,,,,,,,,,,,,,,
,,,,,,,,,,,,,,,,,,,,,,,,,,
,,,,,,,,,,,,,,,,,,,,,,,,,,
,,,,,,,,,,,,,,,,,,,,,,,,,,
,,,,,,,,,,,,,,,,,,,,,,,,,,
,,,,,,,,,,,,,,,,,,,,,,,,,,
,,,,,,,,,,,,,,,,,,,,,,,,,,
,,,,,,,,,,,,,,,,,,,,,,,,,,
,,,,,,,,,,,,,,,,,,,,,,,,,,
,,,,,,,,,,,,,,,,,,,,,,,,,,
,,,,,,,,,,,,,,,,,,,,,,,,,,
,,,,,,,,,,,,,,,,,,,,,,,,,,
,,,,,,,,,,,,,,,,,,,,,,,,,,
,,,,,,,,,,,,,,,,,,,,,,,,,,
,,,,,,,,,,,,,,,,,,,,,,,,,,
,,,,,,,,,,,,,,,,,,,,,,,,,,
,,,,,,,,,,,,,,,,,,,,,,,,,,
,,,,,,,,,,,,,,,,,,,,,,,,,,
,,,,,,,,,,,,,,,,,,,,,,,,,,
,,,,,,,,,,,,,,,,,,,,,,,,,,
,,,,,,,,,,,,,,,,,,,,,,,,,,
,,,,,,,,,,,,,,,,,,,,,,,,,,
,,,,,,,,,,,,,,,,,,,,,,,,,,
,,,,,,,,,,,,,,,,,,,,,,,,,,
,,,,,,,,,,,,,,,,,,,,,,,,,,
,,,,,,,,,,,,,,,,,,,,,,,,,,
,,,,,,,,,,,,,,,,,,,,,,,,,,
,,,,,,,,,,,,,,,,,,,,,,,,,,
,,,,,,,,,,,,,,,,,,,,,,,,,,
,,,,,,,,,,,,,,,,,,,,,,,,,,
,,,,,,,,,,,,,,,,,,,,,,,,,,
,,,,,,,,,,,,,,,,,,,,,,,,,,
,,,,,,,,,,,,,,,,,,,,,,,,,,
,,,,,,,,,,,,,,,,,,,,,,,,,,
,,,,,,,,,,,,,,,,,,,,,,,,,,
,,,,,,,,,,,,,,,,,,,,,,,,,,
,,,,,,,,,,,,,,,,,,,,,,,,,,
,,,,,,,,,,,,,,,,,,,,,,,,,,
,,,,,,,,,,,,,,,,,,,,,,,,,,
,,,,,,,,,,,,,,,,,,,,,,,,,,
,,,,,,,,,,,,,,,,,,,,,,,,,,
,,,,,,,,,,,,,,,,,,,,,,,,,,
,,,,,,,,,,,,,,,,,,,,,,,,,,
,,,,,,,,,,,,,,,,,,,,,,,,,,
,,,,,,,,,,,,,,,,,,,,,,,,,,
,,,,,,,,,,,,,,,,,,,,,,,,,,
,,,,,,,,,,,,,,,,,,,,,,,,,,
,,,,,,,,,,,,,,,,,,,,,,,,,,
,,,,,,,,,,,,,,,,,,,,,,,,,,
,,,,,,,,,,,,,,,,,,,,,,,,,,
,,,,,,,,,,,,,,,,,,,,,,,,,,
,,,,,,,,,,,,,,,,,,,,,,,,,,
,,,,,,,,,,,,,,,,,,,,,,,,,,
,,,,,,,,,,,,,,,,,,,,,,,,,,
,,,,,,,,,,,,,,,,,,,,,,,,,,
,,,,,,,,,,,,,,,,,,,,,,,,,,
,,,,,,,,,,,,,,,,,,,,,,,,,,
,,,,,,,,,,,,,,,,,,,,,,,,,,
,,,,,,,,,,,,,,,,,,,,,,,,,,
,,,,,,,,,,,,,,,,,,,,,,,,,,
,,,,,,,,,,,,,,,,,,,,,,,,,,
,,,,,,,,,,,,,,,,,,,,,,,,,,
,,,,,,,,,,,,,,,,,,,,,,,,,,
,,,,,,,,,,,,,,,,,,,,,,,,,,
,,,,,,,,,,,,,,,,,,,,,,,,,,
,,,,,,,,,,,,,,,,,,,,,,,,,,
,,,,,,,,,,,,,,,,,,,,,,,,,,
,,,,,,,,,,,,,,,,,,,,,,,,,,
,,,,,,,,,,,,,,,,,,,,,,,,,,
,,,,,,,,,,,,,,,,,,,,,,,,,,
,,,,,,,,,,,,,,,,,,,,,,,,,,
,,,,,,,,,,,,,,,,,,,,,,,,,,
,,,,,,,,,,,,,,,,,,,,,,,,,,
,,,,,,,,,,,,,,,,,,,,,,,,,,
,,,,,,,,,,,,,,,,,,,,,,,,,,
,,,,,,,,,,,,,,,,,,,,,,,,,,
,,,,,,,,,,,,,,,,,,,,,,,,,,
,,,,,,,,,,,,,,,,,,,,,,,,,,
,,,,,,,,,,,,,,,,,,,,,,,,,,
,,,,,,,,,,,,,,,,,,,,,,,,,,
,,,,,,,,,,,,,,,,,,,,,,,,,,
,,,,,,,,,,,,,,,,,,,,,,,,,,
,,,,,,,,,,,,,,,,,,,,,,,,,,
,,,,,,,,,,,,,,,,,,,,,,,,,,
,,,,,,,,,,,,,,,,,,,,,,,,,,
,,,,,,,,,,,,,,,,,,,,,,,,,,
,,,,,,,,,,,,,,,,,,,,,,,,,,
,,,,,,,,,,,,,,,,,,,,,,,,,,
,,,,,,,,,,,,,,,,,,,,,,,,,,
,,,,,,,,,,,,,,,,,,,,,,,,,,
,,,,,,,,,,,,,,,,,,,,,,,,,,
,,,,,,,,,,,,,,,,,,,,,,,,,,
,,,,,,,,,,,,,,,,,,,,,,,,,,
,,,,,,,,,,,,,,,,,,,,,,,,,,
,,,,,,,,,,,,,,,,,,,,,,,,,,
,,,,,,,,,,,,,,,,,,,,,,,,,,
,,,,,,,,,,,,,,,,,,,,,,,,,,
,,,,,,,,,,,,,,,,,,,,,,,,,,
,,,,,,,,,,,,,,,,,,,,,,,,,,
,,,,,,,,,,,,,,,,,,,,,,,,,,
,,,,,,,,,,,,,,,,,,,,,,,,,,
,,,,,,,,,,,,,,,,,,,,,,,,,,
,,,,,,,,,,,,,,,,,,,,,,,,,,
,,,,,,,,,,,,,,,,,,,,,,,,,,
,,,,,,,,,,,,,,,,,,,,,,,,,,
,,,,,,,,,,,,,,,,,,,,,,,,,,
,,,,,,,,,,,,,,,,,,,,,,,,,,
,,,,,,,,,,,,,,,,,,,,,,,,,,
,,,,,,,,,,,,,,,,,,,,,,,,,,
,,,,,,,,,,,,,,,,,,,,,,,,,,
,,,,,,,,,,,,,,,,,,,,,,,,,,
,,,,,,,,,,,,,,,,,,,,,,,,,,
,,,,,,,,,,,,,,,,,,,,,,,,,,
,,,,,,,,,,,,,,,,,,,,,,,,,,
,,,,,,,,,,,,,,,,,,,,,,,,,,
,,,,,,,,,,,,,,,,,,,,,,,,,,
,,,,,,,,,,,,,,,,,,,,,,,,,,
,,,,,,,,,,,,,,,,,,,,,,,,,,
,,,,,,,,,,,,,,,,,,,,,,,,,,
,,,,,,,,,,,,,,,,,,,,,,,,,,
,,,,,,,,,,,,,,,,,,,,,,,,,,
,,,,,,,,,,,,,,,,,,,,,,,,,,
,,,,,,,,,,,,,,,,,,,,,,,,,,
,,,,,,,,,,,,,,,,,,,,,,,,,,
,,,,,,,,,,,,,,,,,,,,,,,,,,
,,,,,,,,,,,,,,,,,,,,,,,,,,
,,,,,,,,,,,,,,,,,,,,,,,,,,
,,,,,,,,,,,,,,,,,,,,,,,,,,
,,,,,,,,,,,,,,,,,,,,,,,,,,
,,,,,,,,,,,,,,,,,,,,,,,,,,
,,,,,,,,,,,,,,,,,,,,,,,,,,
,,,,,,,,,,,,,,,,,,,,,,,,,,
,,,,,,,,,,,,,,,,,,,,,,,,,,
,,,,,,,,,,,,,,,,,,,,,,,,,,
,,,,,,,,,,,,,,,,,,,,,,,,,,
,,,,,,,,,,,,,,,,,,,,,,,,,,
,,,,,,,,,,,,,,,,,,,,,,,,,,
,,,,,,,,,,,,,,,,,,,,,,,,,,
,,,,,,,,,,,,,,,,,,,,,,,,,,
,,,,,,,,,,,,,,,,,,,,,,,,,,
,,,,,,,,,,,,,,,,,,,,,,,,,,
,,,,,,,,,,,,,,,,,,,,,,,,,,
,,,,,,,,,,,,,,,,,,,,,,,,,,
,,,,,,,,,,,,,,,,,,,,,,,,,,
,,,,,,,,,,,,,,,,,,,,,,,,,,
,,,,,,,,,,,,,,,,,,,,,,,,,,
,,,,,,,,,,,,,,,,,,,,,,,,,,
,,,,,,,,,,,,,,,,,,,,,,,,,,
,,,,,,,,,,,,,,,,,,,,,,,,,,
,,,,,,,,,,,,,,,,,,,,,,,,,,
,,,,,,,,,,,,,,,,,,,,,,,,,,
,,,,,,,,,,,,,,,,,,,,,,,,,,
,,,,,,,,,,,,,,,,,,,,,,,,,,
,,,,,,,,,,,,,,,,,,,,,,,,,,
,,,,,,,,,,,,,,,,,,,,,,,,,,
,,,,,,,,,,,,,,,,,,,,,,,,,,
,,,,,,,,,,,,,,,,,,,,,,,,,,
,,,,,,,,,,,,,,,,,,,,,,,,,,
,,,,,,,,,,,,,,,,,,,,,,,,,,
,,,,,,,,,,,,,,,,,,,,,,,,,,
,,,,,,,,,,,,,,,,,,,,,,,,,,
,,,,,,,,,,,,,,,,,,,,,,,,,,
,,,,,,,,,,,,,,,,,,,,,,,,,,
,,,,,,,,,,,,,,,,,,,,,,,,,,
,,,,,,,,,,,,,,,,,,,,,,,,,,
,,,,,,,,,,,,,,,,,,,,,,,,,,
,,,,,,,,,,,,,,,,,,,,,,,,,,
,,,,,,,,,,,,,,,,,,,,,,,,,,
,,,,,,,,,,,,,,,,,,,,,,,,,,
,,,,,,,,,,,,,,,,,,,,,,,,,,
,,,,,,,,,,,,,,,,,,,,,,,,,,
,,,,,,,,,,,,,,,,,,,,,,,,,,
,,,,,,,,,,,,,,,,,,,,,,,,,,
,,,,,,,,,,,,,,,,,,,,,,,,,,
,,,,,,,,,,,,,,,,,,,,,,,,,,
,,,,,,,,,,,,,,,,,,,,,,,,,,
,,,,,,,,,,,,,,,,,,,,,,,,,,
,,,,,,,,,,,,,,,,,,,,,,,,,,
,,,,,,,,,,,,,,,,,,,,,,,,,,
,,,,,,,,,,,,,,,,,,,,,,,,,,
,,,,,,,,,,,,,,,,,,,,,,,,,,
,,,,,,,,,,,,,,,,,,,,,,,,,,
,,,,,,,,,,,,,,,,,,,,,,,,,,
,,,,,,,,,,,,,,,,,,,,,,,,,,
,,,,,,,,,,,,,,,,,,,,,,,,,,
,,,,,,,,,,,,,,,,,,,,,,,,,,
,,,,,,,,,,,,,,,,,,,,,,,,,,
,,,,,,,,,,,,,,,,,,,,,,,,,,
,,,,,,,,,,,,,,,,,,,,,,,,,,
,,,,,,,,,,,,,,,,,,,,,,,,,,
,,,,,,,,,,,,,,,,,,,,,,,,,,
,,,,,,,,,,,,,,,,,,,,,,,,,,
,,,,,,,,,,,,,,,,,,,,,,,,,,
,,,,,,,,,,,,,,,,,,,,,,,,,,
,,,,,,,,,,,,,,,,,,,,,,,,,,
,,,,,,,,,,,,,,,,,,,,,,,,,,
,,,,,,,,,,,,,,,,,,,,,,,,,,
,,,,,,,,,,,,,,,,,,,,,,,,,,
,,,,,,,,,,,,,,,,,,,,,,,,,,
,,,,,,,,,,,,,,,,,,,,,,,,,,
,,,,,,,,,,,,,,,,,,,,,,,,,,
,,,,,,,,,,,,,,,,,,,,,,,,,,
,,,,,,,,,,,,,,,,,,,,,,,,,,
,,,,,,,,,,,,,,,,,,,,,,,,,,
,,,,,,,,,,,,,,,,,,,,,,,,,,
,,,,,,,,,,,,,,,,,,,,,,,,,,
,,,,,,,,,,,,,,,,,,,,,,,,,,
,,,,,,,,,,,,,,,,,,,,,,,,,,
,,,,,,,,,,,,,,,,,,,,,,,,,,
,,,,,,,,,,,,,,,,,,,,,,,,,,
,,,,,,,,,,,,,,,,,,,,,,,,,,
,,,,,,,,,,,,,,,,,,,,,,,,,,
,,,,,,,,,,,,,,,,,,,,,,,,,,
,,,,,,,,,,,,,,,,,,,,,,,,,,
,,,,,,,,,,,,,,,,,,,,,,,,,,
,,,,,,,,,,,,,,,,,,,,,,,,,,
,,,,,,,,,,,,,,,,,,,,,,,,,,
,,,,,,,,,,,,,,,,,,,,,,,,,,
,,,,,,,,,,,,,,,,,,,,,,,,,,
,,,,,,,,,,,,,,,,,,,,,,,,,,
,,,,,,,,,,,,,,,,,,,,,,,,,,
,,,,,,,,,,,,,,,,,,,,,,,,,,
,,,,,,,,,,,,,,,,,,,,,,,,,,
,,,,,,,,,,,,,,,,,,,,,,,,,,
,,,,,,,,,,,,,,,,,,,,,,,,,,
,,,,,,,,,,,,,,,,,,,,,,,,,,
,,,,,,,,,,,,,,,,,,,,,,,,,,
,,,,,,,,,,,,,,,,,,,,,,,,,,
,,,,,,,,,,,,,,,,,,,,,,,,,,
,,,,,,,,,,,,,,,,,,,,,,,,,,
,,,,,,,,,,,,,,,,,,,,,,,,,,
,,,,,,,,,,,,,,,,,,,,,,,,,,
,,,,,,,,,,,,,,,,,,,,,,,,,,
,,,,,,,,,,,,,,,,,,,,,,,,,,
,,,,,,,,,,,,,,,,,,,,,,,,,,
,,,,,,,,,,,,,,,,,,,,,,,,,,
,,,,,,,,,,,,,,,,,,,,,,,,,,
,,,,,,,,,,,,,,,,,,,,,,,,,,
,,,,,,,,,,,,,,,,,,,,,,,,,,
,,,,,,,,,,,,,,,,,,,,,,,,,,
,,,,,,,,,,,,,,,,,,,,,,,,,,
,,,,,,,,,,,,,,,,,,,,,,,,,,
,,,,,,,,,,,,,,,,,,,,,,,,,,
,,,,,,,,,,,,,,,,,,,,,,,,,,
,,,,,,,,,,,,,,,,,,,,,,,,,,
,,,,,,,,,,,,,,,,,,,,,,,,,,
,,,,,,,,,,,,,,,,,,,,,,,,,,
,,,,,,,,,,,,,,,,,,,,,,,,,,
,,,,,,,,,,,,,,,,,,,,,,,,,,
,,,,,,,,,,,,,,,,,,,,,,,,,,
,,,,,,,,,,,,,,,,,,,,,,,,,,
,,,,,,,,,,,,,,,,,,,,,,,,,,
,,,,,,,,,,,,,,,,,,,,,,,,,,
,,,,,,,,,,,,,,,,,,,,,,,,,,
,,,,,,,,,,,,,,,,,,,,,,,,,,
,,,,,,,,,,,,,,,,,,,,,,,,,,
,,,,,,,,,,,,,,,,,,,,,,,,,,
,,,,,,,,,,,,,,,,,,,,,,,,,,
,,,,,,,,,,,,,,,,,,,,,,,,,,
,,,,,,,,,,,,,,,,,,,,,,,,,,
,,,,,,,,,,,,,,,,,,,,,,,,,,
,,,,,,,,,,,,,,,,,,,,,,,,,,
,,,,,,,,,,,,,,,,,,,,,,,,,,
,,,,,,,,,,,,,,,,,,,,,,,,,,
,,,,,,,,,,,,,,,,,,,,,,,,,,
,,,,,,,,,,,,,,,,,,,,,,,,,,
,,,,,,,,,,,,,,,,,,,,,,,,,,
,,,,,,,,,,,,,,,,,,,,,,,,,,
,,,,,,,,,,,,,,,,,,,,,,,,,,
,,,,,,,,,,,,,,,,,,,,,,,,,,
,,,,,,,,,,,,,,,,,,,,,,,,,,
,,,,,,,,,,,,,,,,,,,,,,,,,,
,,,,,,,,,,,,,,,,,,,,,,,,,,
,,,,,,,,,,,,,,,,,,,,,,,,,,
,,,,,,,,,,,,,,,,,,,,,,,,,,
,,,,,,,,,,,,,,,,,,,,,,,,,,
,,,,,,,,,,,,,,,,,,,,,,,,,,
,,,,,,,,,,,,,,,,,,,,,,,,,,
,,,,,,,,,,,,,,,,,,,,,,,,,,
,,,,,,,,,,,,,,,,,,,,,,,,,,
,,,,,,,,,,,,,,,,,,,,,,,,,,
,,,,,,,,,,,,,,,,,,,,,,,,,,
,,,,,,,,,,,,,,,,,,,,,,,,,,
,,,,,,,,,,,,,,,,,,,,,,,,,,
,,,,,,,,,,,,,,,,,,,,,,,,,,
,,,,,,,,,,,,,,,,,,,,,,,,,,
,,,,,,,,,,,,,,,,,,,,,,,,,,
,,,,,,,,,,,,,,,,,,,,,,,,,,
,,,,,,,,,,,,,,,,,,,,,,,,,,
,,,,,,,,,,,,,,,,,,,,,,,,,,
,,,,,,,,,,,,,,,,,,,,,,,,,,
,,,,,,,,,,,,,,,,,,,,,,,,,,
,,,,,,,,,,,,,,,,,,,,,,,,,,
,,,,,,,,,,,,,,,,,,,,,,,,,,
,,,,,,,,,,,,,,,,,,,,,,,,,,
,,,,,,,,,,,,,,,,,,,,,,,,,,
,,,,,,,,,,,,,,,,,,,,,,,,,,
,,,,,,,,,,,,,,,,,,,,,,,,,,
,,,,,,,,,,,,,,,,,,,,,,,,,,
,,,,,,,,,,,,,,,,,,,,,,,,,,
,,,,,,,,,,,,,,,,,,,,,,,,,,
,,,,,,,,,,,,,,,,,,,,,,,,,,
,,,,,,,,,,,,,,,,,,,,,,,,,,
,,,,,,,,,,,,,,,,,,,,,,,,,,
,,,,,,,,,,,,,,,,,,,,,,,,,,
,,,,,,,,,,,,,,,,,,,,,,,,,,
,,,,,,,,,,,,,,,,,,,,,,,,,,
,,,,,,,,,,,,,,,,,,,,,,,,,,
,,,,,,,,,,,,,,,,,,,,,,,,,,
,,,,,,,,,,,,,,,,,,,,,,,,,,
,,,,,,,,,,,,,,,,,,,,,,,,,,
,,,,,,,,,,,,,,,,,,,,,,,,,,
,,,,,,,,,,,,,,,,,,,,,,,,,,
,,,,,,,,,,,,,,,,,,,,,,,,,,
,,,,,,,,,,,,,,,,,,,,,,,,,,
,,,,,,,,,,,,,,,,,,,,,,,,,,
,,,,,,,,,,,,,,,,,,,,,,,,,,
,,,,,,,,,,,,,,,,,,,,,,,,,,
,,,,,,,,,,,,,,,,,,,,,,,,,,
,,,,,,,,,,,,,,,,,,,,,,,,,,
,,,,,,,,,,,,,,,,,,,,,,,,,,
,,,,,,,,,,,,,,,,,,,,,,,,,,
,,,,,,,,,,,,,,,,,,,,,,,,,,
,,,,,,,,,,,,,,,,,,,,,,,,,,
,,,,,,,,,,,,,,,,,,,,,,,,,,
,,,,,,,,,,,,,,,,,,,,,,,,,,
,,,,,,,,,,,,,,,,,,,,,,,,,,
,,,,,,,,,,,,,,,,,,,,,,,,,,
,,,,,,,,,,,,,,,,,,,,,,,,,,
,,,,,,,,,,,,,,,,,,,,,,,,,,
,,,,,,,,,,,,,,,,,,,,,,,,,,
,,,,,,,,,,,,,,,,,,,,,,,,,,
,,,,,,,,,,,,,,,,,,,,,,,,,,
,,,,,,,,,,,,,,,,,,,,,,,,,,
,,,,,,,,,,,,,,,,,,,,,,,,,,
,,,,,,,,,,,,,,,,,,,,,,,,,,
,,,,,,,,,,,,,,,,,,,,,,,,,,
,,,,,,,,,,,,,,,,,,,,,,,,,,
,,,,,,,,,,,,,,,,,,,,,,,,,,
,,,,,,,,,,,,,,,,,,,,,,,,,,
,,,,,,,,,,,,,,,,,,,,,,,,,,
,,,,,,,,,,,,,,,,,,,,,,,,,,
,,,,,,,,,,,,,,,,,,,,,,,,,,
,,,,,,,,,,,,,,,,,,,,,,,,,,
,,,,,,,,,,,,,,,,,,,,,,,,,,
,,,,,,,,,,,,,,,,,,,,,,,,,,
,,,,,,,,,,,,,,,,,,,,,,,,,,
,,,,,,,,,,,,,,,,,,,,,,,,,,
,,,,,,,,,,,,,,,,,,,,,,,,,,
,,,,,,,,,,,,,,,,,,,,,,,,,,
,,,,,,,,,,,,,,,,,,,,,,,,,,
,,,,,,,,,,,,,,,,,,,,,,,,,,
,,,,,,,,,,,,,,,,,,,,,,,,,,
,,,,,,,,,,,,,,,,,,,,,,,,,,
,,,,,,,,,,,,,,,,,,,,,,,,,,
,,,,,,,,,,,,,,,,,,,,,,,,,,
,,,,,,,,,,,,,,,,,,,,,,,,,,
,,,,,,,,,,,,,,,,,,,,,,,,,,
,,,,,,,,,,,,,,,,,,,,,,,,,,
,,,,,,,,,,,,,,,,,,,,,,,,,,
,,,,,,,,,,,,,,,,,,,,,,,,,,
,,,,,,,,,,,,,,,,,,,,,,,,,,
,,,,,,,,,,,,,,,,,,,,,,,,,,
,,,,,,,,,,,,,,,,,,,,,,,,,,
,,,,,,,,,,,,,,,,,,,,,,,,,,
,,,,,,,,,,,,,,,,,,,,,,,,,,
,,,,,,,,,,,,,,,,,,,,,,,,,,
,,,,,,,,,,,,,,,,,,,,,,,,,,
,,,,,,,,,,,,,,,,,,,,,,,,,,
,,,,,,,,,,,,,,,,,,,,,,,,,,
,,,,,,,,,,,,,,,,,,,,,,,,,,
,,,,,,,,,,,,,,,,,,,,,,,,,,
,,,,,,,,,,,,,,,,,,,,,,,,,,
,,,,,,,,,,,,,,,,,,,,,,,,,,
,,,,,,,,,,,,,,,,,,,,,,,,,,
,,,,,,,,,,,,,,,,,,,,,,,,,,
,,,,,,,,,,,,,,,,,,,,,,,,,,
,,,,,,,,,,,,,,,,,,,,,,,,,,
,,,,,,,,,,,,,,,,,,,,,,,,,,
,,,,,,,,,,,,,,,,,,,,,,,,,,
,,,,,,,,,,,,,,,,,,,,,,,,,,
,,,,,,,,,,,,,,,,,,,,,,,,,,
,,,,,,,,,,,,,,,,,,,,,,,,,,
,,,,,,,,,,,,,,,,,,,,,,,,,,
,,,,,,,,,,,,,,,,,,,,,,,,,,
,,,,,,,,,,,,,,,,,,,,,,,,,,
,,,,,,,,,,,,,,,,,,,,,,,,,,
,,,,,,,,,,,,,,,,,,,,,,,,,,
,,,,,,,,,,,,,,,,,,,,,,,,,,
,,,,,,,,,,,,,,,,,,,,,,,,,,
,,,,,,,,,,,,,,,,,,,,,,,,,,
,,,,,,,,,,,,,,,,,,,,,,,,,,
,,,,,,,,,,,,,,,,,,,,,,,,,,
,,,,,,,,,,,,,,,,,,,,,,,,,,
,,,,,,,,,,,,,,,,,,,,,,,,,,
,,,,,,,,,,,,,,,,,,,,,,,,,,
,,,,,,,,,,,,,,,,,,,,,,,,,,
,,,,,,,,,,,,,,,,,,,,,,,,,,
,,,,,,,,,,,,,,,,,,,,,,,,,,
,,,,,,,,,,,,,,,,,,,,,,,,,,
,,,,,,,,,,,,,,,,,,,,,,,,,,
,,,,,,,,,,,,,,,,,,,,,,,,,,
,,,,,,,,,,,,,,,,,,,,,,,,,,
,,,,,,,,,,,,,,,,,,,,,,,,,,
,,,,,,,,,,,,,,,,,,,,,,,,,,
,,,,,,,,,,,,,,,,,,,,,,,,,,
,,,,,,,,,,,,,,,,,,,,,,,,,,
,,,,,,,,,,,,,,,,,,,,,,,,,,
,,,,,,,,,,,,,,,,,,,,,,,,,,
,,,,,,,,,,,,,,,,,,,,,,,,,,
,,,,,,,,,,,,,,,,,,,,,,,,,,
,,,,,,,,,,,,,,,,,,,,,,,,,,
,,,,,,,,,,,,,,,,,,,,,,,,,,
,,,,,,,,,,,,,,,,,,,,,,,,,,
,,,,,,,,,,,,,,,,,,,,,,,,,,
,,,,,,,,,,,,,,,,,,,,,,,,,,
,,,,,,,,,,,,,,,,,,,,,,,,,,
,,,,,,,,,,,,,,,,,,,,,,,,,,
,,,,,,,,,,,,,,,,,,,,,,,,,,
,,,,,,,,,,,,,,,,,,,,,,,,,,
,,,,,,,,,,,,,,,,,,,,,,,,,,
,,,,,,,,,,,,,,,,,,,,,,,,,,
,,,,,,,,,,,,,,,,,,,,,,,,,,
,,,,,,,,,,,,,,,,,,,,,,,,,,
,,,,,,,,,,,,,,,,,,,,,,,,,,
,,,,,,,,,,,,,,,,,,,,,,,,,,
,,,,,,,,,,,,,,,,,,,,,,,,,,
,,,,,,,,,,,,,,,,,,,,,,,,,,
,,,,,,,,,,,,,,,,,,,,,,,,,,
,,,,,,,,,,,,,,,,,,,,,,,,,,
,,,,,,,,,,,,,,,,,,,,,,,,,,
,,,,,,,,,,,,,,,,,,,,,,,,,,
,,,,,,,,,,,,,,,,,,,,,,,,,,
,,,,,,,,,,,,,,,,,,,,,,,,,,
,,,,,,,,,,,,,,,,,,,,,,,,,,
,,,,,,,,,,,,,,,,,,,,,,,,,,
,,,,,,,,,,,,,,,,,,,,,,,,,,
,,,,,,,,,,,,,,,,,,,,,,,,,,
,,,,,,,,,,,,,,,,,,,,,,,,,,
,,,,,,,,,,,,,,,,,,,,,,,,,,
,,,,,,,,,,,,,,,,,,,,,,,,,,
,,,,,,,,,,,,,,,,,,,,,,,,,,
,,,,,,,,,,,,,,,,,,,,,,,,,,
,,,,,,,,,,,,,,,,,,,,,,,,,,
,,,,,,,,,,,,,,,,,,,,,,,,,,
,,,,,,,,,,,,,,,,,,,,,,,,,,
,,,,,,,,,,,,,,,,,,,,,,,,,,
,,,,,,,,,,,,,,,,,,,,,,,,,,
,,,,,,,,,,,,,,,,,,,,,,,,,,
,,,,,,,,,,,,,,,,,,,,,,,,,,
,,,,,,,,,,,,,,,,,,,,,,,,,,
,,,,,,,,,,,,,,,,,,,,,,,,,,
,,,,,,,,,,,,,,,,,,,,,,,,,,
,,,,,,,,,,,,,,,,,,,,,,,,,,
,,,,,,,,,,,,,,,,,,,,,,,,,,
,,,,,,,,,,,,,,,,,,,,,,,,,,
,,,,,,,,,,,,,,,,,,,,,,,,,,
,,,,,,,,,,,,,,,,,,,,,,,,,,
,,,,,,,,,,,,,,,,,,,,,,,,,,
,,,,,,,,,,,,,,,,,,,,,,,,,,
,,,,,,,,,,,,,,,,,,,,,,,,,,
,,,,,,,,,,,,,,,,,,,,,,,,,,
,,,,,,,,,,,,,,,,,,,,,,,,,,
,,,,,,,,,,,,,,,,,,,,,,,,,,
,,,,,,,,,,,,,,,,,,,,,,,,,,
,,,,,,,,,,,,,,,,,,,,,,,,,,
,,,,,,,,,,,,,,,,,,,,,,,,,,
,,,,,,,,,,,,,,,,,,,,,,,,,,
,,,,,,,,,,,,,,,,,,,,,,,,,,
,,,,,,,,,,,,,,,,,,,,,,,,,,
,,,,,,,,,,,,,,,,,,,,,,,,,,
,,,,,,,,,,,,,,,,,,,,,,,,,,
,,,,,,,,,,,,,,,,,,,,,,,,,,
,,,,,,,,,,,,,,,,,,,,,,,,,,
,,,,,,,,,,,,,,,,,,,,,,,,,,
,,,,,,,,,,,,,,,,,,,,,,,,,,
,,,,,,,,,,,,,,,,,,,,,,,,,,
,,,,,,,,,,,,,,,,,,,,,,,,,,
,,,,,,,,,,,,,,,,,,,,,,,,,,
,,,,,,,,,,,,,,,,,,,,,,,,,,
,,,,,,,,,,,,,,,,,,,,,,,,,,
,,,,,,,,,,,,,,,,,,,,,,,,,,
,,,,,,,,,,,,,,,,,,,,,,,,,,
,,,,,,,,,,,,,,,,,,,,,,,,,,
,,,,,,,,,,,,,,,,,,,,,,,,,,
,,,,,,,,,,,,,,,,,,,,,,,,,,
,,,,,,,,,,,,,,,,,,,,,,,,,,
,,,,,,,,,,,,,,,,,,,,,,,,,,
,,,,,,,,,,,,,,,,,,,,,,,,,,
,,,,,,,,,,,,,,,,,,,,,,,,,,
,,,,,,,,,,,,,,,,,,,,,,,,,,
,,,,,,,,,,,,,,,,,,,,,,,,,,
,,,,,,,,,,,,,,,,,,,,,,,,,,
,,,,,,,,,,,,,,,,,,,,,,,,,,
,,,,,,,,,,,,,,,,,,,,,,,,,,
,,,,,,,,,,,,,,,,,,,,,,,,,,
,,,,,,,,,,,,,,,,,,,,,,,,,,
,,,,,,,,,,,,,,,,,,,,,,,,,,
,,,,,,,,,,,,,,,,,,,,,,,,,,
,,,,,,,,,,,,,,,,,,,,,,,,,,
,,,,,,,,,,,,,,,,,,,,,,,,,,
,,,,,,,,,,,,,,,,,,,,,,,,,,
,,,,,,,,,,,,,,,,,,,,,,,,,,
,,,,,,,,,,,,,,,,,,,,,,,,,,
,,,,,,,,,,,,,,,,,,,,,,,,,,
,,,,,,,,,,,,,,,,,,,,,,,,,,
,,,,,,,,,,,,,,,,,,,,,,,,,,
,,,,,,,,,,,,,,,,,,,,,,,,,,
,,,,,,,,,,,,,,,,,,,,,,,,,,
,,,,,,,,,,,,,,,,,,,,,,,,,,
,,,,,,,,,,,,,,,,,,,,,,,,,,
,,,,,,,,,,,,,,,,,,,,,,,,,,
,,,,,,,,,,,,,,,,,,,,,,,,,,
,,,,,,,,,,,,,,,,,,,,,,,,,,
,,,,,,,,,,,,,,,,,,,,,,,,,,
,,,,,,,,,,,,,,,,,,,,,,,,,,
,,,,,,,,,,,,,,,,,,,,,,,,,,
,,,,,,,,,,,,,,,,,,,,,,,,,,
,,,,,,,,,,,,,,,,,,,,,,,,,,
,,,,,,,,,,,,,,,,,,,,,,,,,,
,,,,,,,,,,,,,,,,,,,,,,,,,,
,,,,,,,,,,,,,,,,,,,,,,,,,,
,,,,,,,,,,,,,,,,,,,,,,,,,,
,,,,,,,,,,,,,,,,,,,,,,,,,,
,,,,,,,,,,,,,,,,,,,,,,,,,,
,,,,,,,,,,,,,,,,,,,,,,,,,,
,,,,,,,,,,,,,,,,,,,,,,,,,,
,,,,,,,,,,,,,,,,,,,,,,,,,,
,,,,,,,,,,,,,,,,,,,,,,,,,,
,,,,,,,,,,,,,,,,,,,,,,,,,,
,,,,,,,,,,,,,,,,,,,,,,,,,,
,,,,,,,,,,,,,,,,,,,,,,,,,,
,,,,,,,,,,,,,,,,,,,,,,,,,,
,,,,,,,,,,,,,,,,,,,,,,,,,,
,,,,,,,,,,,,,,,,,,,,,,,,,,
,,,,,,,,,,,,,,,,,,,,,,,,,,
,,,,,,,,,,,,,,,,,,,,,,,,,,
,,,,,,,,,,,,,,,,,,,,,,,,,,
,,,,,,,,,,,,,,,,,,,,,,,,,,
,,,,,,,,,,,,,,,,,,,,,,,,,,
,,,,,,,,,,,,,,,,,,,,,,,,,,
,,,,,,,,,,,,,,,,,,,,,,,,,,
,,,,,,,,,,,,,,,,,,,,,,,,,,
,,,,,,,,,,,,,,,,,,,,,,,,,,
,,,,,,,,,,,,,,,,,,,,,,,,,,
,,,,,,,,,,,,,,,,,,,,,,,,,,
,,,,,,,,,,,,,,,,,,,,,,,,,,
,,,,,,,,,,,,,,,,,,,,,,,,,,
,,,,,,,,,,,,,,,,,,,,,,,,,,
,,,,,,,,,,,,,,,,,,,,,,,,,,
,,,,,,,,,,,,,,,,,,,,,,,,,,
,,,,,,,,,,,,,,,,,,,,,,,,,,
,,,,,,,,,,,,,,,,,,,,,,,,,,
,,,,,,,,,,,,,,,,,,,,,,,,,,
,,,,,,,,,,,,,,,,,,,,,,,,,,
,,,,,,,,,,,,,,,,,,,,,,,,,,
,,,,,,,,,,,,,,,,,,,,,,,,,,
,,,,,,,,,,,,,,,,,,,,,,,,,,
,,,,,,,,,,,,,,,,,,,,,,,,,,
,,,,,,,,,,,,,,,,,,,,,,,,,,
,,,,,,,,,,,,,,,,,,,,,,,,,,
,,,,,,,,,,,,,,,,,,,,,,,,,,
,,,,,,,,,,,,,,,,,,,,,,,,,,
,,,,,,,,,,,,,,,,,,,,,,,,,,
,,,,,,,,,,,,,,,,,,,,,,,,,,
,,,,,,,,,,,,,,,,,,,,,,,,,,
,,,,,,,,,,,,,,,,,,,,,,,,,,
,,,,,,,,,,,,,,,,,,,,,,,,,,
,,,,,,,,,,,,,,,,,,,,,,,,,,
,,,,,,,,,,,,,,,,,,,,,,,,,,
,,,,,,,,,,,,,,,,,,,,,,,,,,
,,,,,,,,,,,,,,,,,,,,,,,,,,
,,,,,,,,,,,,,,,,,,,,,,,,,,
,,,,,,,,,,,,,,,,,,,,,,,,,,
,,,,,,,,,,,,,,,,,,,,,,,,,,
,,,,,,,,,,,,,,,,,,,,,,,,,,
,,,,,,,,,,,,,,,,,,,,,,,,,,
,,,,,,,,,,,,,,,,,,,,,,,,,,
,,,,,,,,,,,,,,,,,,,,,,,,,,
,,,,,,,,,,,,,,,,,,,,,,,,,,
,,,,,,,,,,,,,,,,,,,,,,,,,,
,,,,,,,,,,,,,,,,,,,,,,,,,,
,,,,,,,,,,,,,,,,,,,,,,,,,,
,,,,,,,,,,,,,,,,,,,,,,,,,,
,,,,,,,,,,,,,,,,,,,,,,,,,,
,,,,,,,,,,,,,,,,,,,,,,,,,,
,,,,,,,,,,,,,,,,,,,,,,,,,,
,,,,,,,,,,,,,,,,,,,,,,,,,,
,,,,,,,,,,,,,,,,,,,,,,,,,,
,,,,,,,,,,,,,,,,,,,,,,,,,,
,,,,,,,,,,,,,,,,,,,,,,,,,,
,,,,,,,,,,,,,,,,,,,,,,,,,,
,,,,,,,,,,,,,,,,,,,,,,,,,,
,,,,,,,,,,,,,,,,,,,,,,,,,,
,,,,,,,,,,,,,,,,,,,,,,,,,,
,,,,,,,,,,,,,,,,,,,,,,,,,,
